{
  "project_info": {
    "project_number": "100742632410",
    "project_id": "testproject1-306514",
    "storage_bucket": "testproject1-306514.appspot.com"
  },
  "client": [
    {
      "client_info": {
        "mobilesdk_app_id": "1:100742632410:android:da42bdde3e4831ac9c26e3",
        "android_client_info": {
          "package_name": "com.dmm"
        }
      },
      "oauth_client": [
        {
          "client_id": "100742632410-56ihens98q2r5ok4v0uq8nu033g97lak.apps.googleusercontent.com",
          "client_type": 3
        }
      ],
      "api_key": [
        {
          "current_key": "AIzaSyDYZydGrscoD6p0LTdPZzsjm-GhZ0Y6Bsc"
        }
      ],
      "services": {
        "appinvite_service": {
          "other_platform_oauth_client": [
            {
              "client_id": "100742632410-56ihens98q2r5ok4v0uq8nu033g97lak.apps.googleusercontent.com",
              "client_type": 3
            }
          ]
        }
      }
    }
  ],
  "configuration_version": "1"
}